<?xml version="1.0" encoding="utf-8"?>
<!-- Generator: Adobe Illustrator 22.1.0, SVG Export Plug-In . SVG Version: 6.00 Build 0)  -->
<svg version="1.1" id="Layer_1" xmlns="http://www.w3.org/2000/svg" xmlns:xlink="http://www.w3.org/1999/xlink" x="0px" y="0px"
	 width="24px" height="24px" viewBox="0 0 24 24" style="enable-background:new 0 0 24 24;" xml:space="preserve">
<style type="text/css">
	.st0{fill:#010101;}
</style>
<path id="Shape_3_" class="st0" d="M18.7,1H5.3C3,1,1,2.9,1,5.3v13.5C1,21,2.9,23,5.3,23h13.5c2.3,0,4.3-1.9,4.3-4.3V5.3
	C23,2.9,21.1,1,18.7,1L18.7,1z M19.9,3.5h0.4v3.7h-3.7V3.5H19.9L19.9,3.5z M8.9,9.6c0.7-1,1.9-1.6,3.2-1.6s2.4,0.7,3.2,1.6
	c0.4,0.7,0.8,1.4,0.8,2.3c0,2.1-1.8,3.8-3.8,3.8S8.3,14,8.3,11.9C8.2,11.1,8.4,10.3,8.9,9.6L8.9,9.6z M20.9,18.6
	c0,1.2-1,2.1-2.1,2.1H5.4c-1.2,0-2.1-1-2.1-2.1v-9h3.3c-0.3,0.7-0.4,1.4-0.4,2.3c0,3.3,2.7,6,6,6s6-2.7,6-6c0-0.8-0.1-1.5-0.4-2.3
	H21v9C21,18.6,20.9,18.6,20.9,18.6z"/>
</svg>
