
<svg width="47px" height="38px" viewBox="0 0 47 38" version="1.1" xmlns="http://www.w3.org/2000/svg" xmlns:xlink="http://www.w3.org/1999/xlink">
    <!-- Generator: Sketch 51.1 (57501) - http://www.bohemiancoding.com/sketch -->
    <desc>Created with Sketch.</desc>
    <defs></defs>
    <g id="Symbols" stroke="none" stroke-width="1" fill="none" fill-rule="evenodd">
        <g id="Quote-Desktop" transform="translate(-157.000000, -123.000000)" fill="#FF7D00">
            <g id="Quote">
                <path d="M175.108824,123 L163.773529,123 L157,160.047059 L173.726471,160.047059 L175.108824,123 Z M204,123 L192.802941,123 L186.029412,160.047059 L202.755882,160.047059 L204,123 Z" id="“"></path>
            </g>
        </g>
    </g>
</svg>